[{
  "id": 1,
  "fecha": "7/23/2019",
  "importe": 86,
  "latitud": 10.4141663,
  "longitud": 8.6903172
}, {
  "id": 2,
  "fecha": "8/13/2019",
  "importe": 58,
  "latitud": 38.7043276,
  "longitud": -9.2315277
}, {
  "id": 3,
  "fecha": "3/11/2020",
  "importe": 31,
  "latitud": 59.3164285,
  "longitud": 18.0590482
}, {
  "id": 4,
  "fecha": "7/13/2019",
  "importe": 5,
  "latitud": 53.4751957,
  "longitud": 43.5724004
}, {
  "id": 5,
  "fecha": "11/6/2019",
  "importe": 87,
  "latitud": 15.4281295,
  "longitud": 106.3802302
}, {
  "id": 6,
  "fecha": "10/16/2019",
  "importe": 6,
  "latitud": -5.3102888,
  "longitud": 119.742604
}, {
  "id": 7,
  "fecha": "4/10/2020",
  "importe": 71,
  "latitud": 47.2115555,
  "longitud": 3.8260916
}, {
  "id": 8,
  "fecha": "7/1/2019",
  "importe": 88,
  "latitud": 28.9301227,
  "longitud": 99.8001946
}, {
  "id": 9,
  "fecha": "7/13/2019",
  "importe": 49,
  "latitud": -10.8731945,
  "longitud": 39.4217212
}, {
  "id": 10,
  "fecha": "9/22/2019",
  "importe": 31,
  "latitud": 49.8151822,
  "longitud": 19.3771749
}]
